<?xml version="1.0" encoding="UTF-8"?>
<svg width="56px" height="58px" viewBox="0 0 56 58" version="1.1" xmlns="http://www.w3.org/2000/svg" xmlns:xlink="http://www.w3.org/1999/xlink">
    <!-- Generator: sketchtool 51.3 (57544) - http://www.bohemiancoding.com/sketch -->
    <title>33042B14-5A1C-4E95-B4D5-798413E4F84D</title>
    <desc>Created with sketchtool.</desc>
    <defs>
        <linearGradient x1="158.943264%" y1="-42.725509%" x2="-66.019214%" y2="305.093966%" id="linearGradient-1">
            <stop stop-color="#398BD2" offset="0%"></stop>
            <stop stop-color="#216FB3" offset="39.4211134%"></stop>
            <stop stop-color="#024B8B" offset="100%"></stop>
        </linearGradient>
    </defs>
    <g id="Page-1" stroke="none" stroke-width="1" fill="none" fill-rule="evenodd" stroke-linecap="round" stroke-linejoin="round">
        <g id="new-landing-page-draft" transform="translate(-1017.000000, -879.000000)" stroke="url(#linearGradient-1)">
            <g id="section" transform="translate(250.000000, 800.000000)">
                <g id="col" transform="translate(640.000000, 80.000000)">
                    <g id="icon-options" transform="translate(128.000000, 0.000000)">
                        <polygon id="Stroke-2300" points="29.2173913 24.3478261 41.3913043 19.4782609 41.3913043 3.65217391 29.2173913 7.30434783 17.0434783 3.65217391 17.0434783 19.4782609"></polygon>
                        <polyline id="Stroke-2301" points="41.3913043 3.65217391 29.2173913 0 17.0434783 3.65217391"></polyline>
                        <path d="M29.2173913,7.21523478 L29.2173913,24.258713" id="Stroke-2302"></path>
                        <polygon id="Stroke-2303" points="43.826087 45.0434783 53.5652174 40.173913 53.5652174 29.2173913 43.826087 32.8695652 34.0869565 29.2173913 34.0869565 40.173913"></polygon>
                        <polyline id="Stroke-2304" points="53.5652174 29.2173913 43.826087 25.5652174 34.0869565 29.2173913"></polyline>
                        <path d="M43.826087,32.7804522 L43.826087,44.9543652" id="Stroke-2305"></path>
                        <polygon id="Stroke-2306" points="14.6086957 56 29.2173913 51.1304348 29.2173913 31.6521739 14.6086957 36.5217391 0 31.6521739 0 51.1304348"></polygon>
                        <polyline id="Stroke-2307" points="29.2173913 31.6521739 14.6086957 26.7826087 0 31.6521739"></polyline>
                        <path d="M14.6086957,36.4326261 L14.6086957,55.910887" id="Stroke-2308"></path>
                    </g>
                </g>
            </g>
        </g>
    </g>
</svg>