<?xml version="1.0" encoding="UTF-8"?>
<svg width="58px" height="58px" viewBox="0 0 58 58" version="1.1" xmlns="http://www.w3.org/2000/svg" xmlns:xlink="http://www.w3.org/1999/xlink">
    <!-- Generator: sketchtool 51.3 (57544) - http://www.bohemiancoding.com/sketch -->
    <title>6F9E4913-4997-411F-831E-1BE8DE40B43F</title>
    <desc>Created with sketchtool.</desc>
    <defs>
        <linearGradient x1="100%" y1="0%" x2="0%" y2="100%" id="linearGradient-1">
            <stop stop-color="#398BD2" offset="0%"></stop>
            <stop stop-color="#216FB3" offset="39.4211134%"></stop>
            <stop stop-color="#024B8B" offset="100%"></stop>
        </linearGradient>
    </defs>
    <g id="Page-1" stroke="none" stroke-width="1" fill="none" fill-rule="evenodd" stroke-linecap="round" stroke-linejoin="round">
        <g id="new-landing-page-draft" transform="translate(-375.000000, -879.000000)" stroke="url(#linearGradient-1)">
            <g id="section" transform="translate(250.000000, 800.000000)">
                <g id="col" transform="translate(0.000000, 80.000000)">
                    <g id="icon-application" transform="translate(126.000000, 0.000000)">
                        <polyline id="Stroke-3451" points="26.7826087 2.43478261 56 2.43478261 56 56 0 56 0 2.43478261 7.30434783 2.43478261"></polyline>
                        <polygon id="Stroke-3452" points="26.7826087 31.6521739 17.0434783 21.9130435 7.30434783 31.6521739 7.30434783 0 26.7826087 0"></polygon>
                        <path d="M34.0869565,17.0434783 L48.6956522,17.0434783" id="Stroke-3453"></path>
                        <path d="M34.0869565,24.3478261 L48.6956522,24.3478261" id="Stroke-3454"></path>
                        <path d="M34.0869565,31.6521739 L48.6956522,31.6521739" id="Stroke-3455"></path>
                        <path d="M7.30434783,38.9565217 L48.6956522,38.9565217" id="Stroke-3456"></path>
                        <path d="M7.30434783,46.2608696 L38.9565217,46.2608696" id="Stroke-3457"></path>
                    </g>
                </g>
            </g>
        </g>
    </g>
</svg>